Bagging:
(n_estimators, max_samples, max_features, bootstrap_samples)

(10, 0.25, 0.25, False)
(0.7696202904788098, 0.9096097553800209)

(10, 0.25, 0.25, True)
(0.7489841630791702, 0.8806974748159184)

(10, 0.25, 0.5, False)
(0.839351248500333, 0.9492278730059867)

(10, 0.25, 0.5, True)
(0.783155638982179, 0.9180617761737032)

(10, 0.25, 0.75, False)
(0.839047106127552, 0.9448970627824923)

(10, 0.25, 0.75, True)
(0.8161771534751533, 0.9298220477404928)

(10, 0.25, 1.0, False)
(0.8539026608053449, 0.952763482699468)

(10, 0.25, 1.0, True)
(0.817049756220116, 0.9346134698812313)

(10, 0.5, 0.25, False)
(0.8049949743004468, 0.9205516960137481)

(10, 0.5, 0.25, True)
(0.7600341817699001, 0.887564572883132)

(10, 0.5, 0.5, False)
(0.8537675258691683, 0.956037621785769)

(10, 0.5, 0.5, True)
(0.8150192235917179, 0.9191777453093576)

(10, 0.5, 0.75, False)
(0.848245421425172, 0.9489227994532972)

(10, 0.5, 0.75, True)
(0.8379309615340109, 0.9378417143587481)

(10, 0.5, 1.0, False)
(0.8589411234729452, 0.9510185781937395)

(10, 0.5, 1.0, True)
(0.8430943251844384, 0.9408080264146126)

(10, 0.75, 0.25, False)
(0.8113808529488212, 0.9211116613744278)

(10, 0.75, 0.25, True)
(0.7841073416130445, 0.8959800338711109)

(10, 0.75, 0.5, False)
(0.8589227254638045, 0.9569561983355082)

(10, 0.75, 0.5, True)
(0.8160047529124009, 0.9195551892181101)

(10, 0.75, 0.75, False)
(0.8681039733531102, 0.9561679200808166)

(10, 0.75, 0.75, True)
(0.846949464561262, 0.943975809984033)

(10, 0.75, 1.0, False)
(0.8653906068208206, 0.9553860766566091)

(10, 0.75, 1.0, True)
(0.847529522831457, 0.9436091286072944)

(10, 1.0, 0.25, False)
(0.8148339981402957, 0.9214284674402009)

(10, 1.0, 0.25, True)
(0.7845615148839378, 0.8919753546866369)

(10, 1.0, 0.5, False)
(0.8604138099734003, 0.9544545531363542)

(10, 1.0, 0.5, True)
(0.8238040851160248, 0.922518264478291)

(10, 1.0, 0.75, False)
(0.8775652939460289, 0.9584843354275393)

(10, 1.0, 0.75, True)
(0.8511744868422657, 0.9399114843395365)

(10, 1.0, 1.0, False)
(0.8749651363783862, 0.9562672464252858)

(10, 1.0, 1.0, True)
(0.8521302491222941, 0.9388460176991146)

(25, 0.25, 0.25, False)
(0.7717498355305928, 0.918288620024548)

(25, 0.25, 0.25, True)
(0.7397853652380312, 0.9012782723327354)

(25, 0.25, 0.5, False)
(0.8346502549429617, 0.9482829485380608)

(25, 0.25, 0.5, True)
(0.7968102260197666, 0.9357640627906637)

(25, 0.25, 0.75, False)
(0.8528899959779329, 0.9497823667788869)

(25, 0.25, 0.75, True)
(0.8272771028235439, 0.9378061282606214)

(25, 0.25, 1.0, False)
(0.8601597852758867, 0.960465019259918)

(25, 0.25, 1.0, True)
(0.8411579561090767, 0.9451497073708609)

(25, 0.5, 0.25, False)
(0.8061683496922926, 0.9266512166859787)

(25, 0.5, 0.25, True)
(0.7684913598604773, 0.9095052561934861)

(25, 0.5, 0.5, False)
(0.8560890303690953, 0.9550738916256152)

(25, 0.5, 0.5, True)
(0.8259909718942047, 0.9360375307511866)

(25, 0.5, 0.75, False)
(0.8765918942811071, 0.9601341437853694)

(25, 0.5, 0.75, True)
(0.8473781364048001, 0.9468427289656335)

(25, 0.5, 1.0, False)
(0.8734142298135003, 0.9567984813165641)

(25, 0.5, 1.0, True)
(0.8598132324542113, 0.9512047769582009)

(25, 0.75, 0.25, False)
(0.7975850965624911, 0.9288349416241078)

(25, 0.75, 0.25, True)
(0.7754320841269425, 0.9130778927618651)

(25, 0.75, 0.5, False)
(0.8639632609601872, 0.9545230483219014)

(25, 0.75, 0.5, True)
(0.8291977190476413, 0.935983413169371)

(25, 0.75, 0.75, False)
(0.8822412397372382, 0.9586885429186343)

(25, 0.75, 0.75, True)
(0.8607259609604315, 0.9523180483143379)

(25, 0.75, 1.0, False)
(0.8789321991731155, 0.9585694987953816)

(25, 0.75, 1.0, True)
(0.8700878167169533, 0.9527951181875564)

(25, 1.0, 0.25, False)
(0.816219708525377, 0.929081913139087)

(25, 1.0, 0.25, True)
(0.780172215497966, 0.9129395898383096)

(25, 1.0, 0.5, False)
(0.8647662865586202, 0.956136651202024)

(25, 1.0, 0.5, True)
(0.8436296936838807, 0.9397610945797793)

(25, 1.0, 0.75, False)
(0.885340824742607, 0.9595348252100129)

(25, 1.0, 0.75, True)
(0.8676877951474249, 0.9506362470583256)

(25, 1.0, 1.0, False)
(0.8793545519801159, 0.9625733753347853)

(25, 1.0, 1.0, True)
(0.8684133947537739, 0.9511319984803495)

(50, 0.25, 0.25, False)
(0.7749513964538529, 0.922138249384765)

(50, 0.25, 0.25, True)
(0.7487859379125997, 0.9124785270669069)

(50, 0.25, 0.5, False)
(0.8320808660917485, 0.9481733702206138)

(50, 0.25, 0.5, True)
(0.7946139896449651, 0.9325576384399908)

(50, 0.25, 0.75, False)
(0.8486765077451669, 0.9511003477746639)

(50, 0.25, 0.75, True)
(0.8325503955903072, 0.9425107659072492)

(50, 0.25, 1.0, False)
(0.8635975936987836, 0.9612347052280307)

(50, 0.25, 1.0, True)
(0.8437459187072618, 0.9502974260663636)

(50, 0.5, 0.25, False)
(0.8085198633392415, 0.9319385325734069)

(50, 0.5, 0.25, True)
(0.7566181446429142, 0.9186491141014034)

(50, 0.5, 0.5, False)
(0.8544528229100864, 0.9543647997294016)

(50, 0.5, 0.5, True)
(0.8286848693494372, 0.9356487380280878)

(50, 0.5, 0.75, False)
(0.8708978161567771, 0.9597294804795568)

(50, 0.5, 0.75, True)
(0.8540229622177837, 0.9514382664770562)

(50, 0.5, 1.0, False)
(0.8786404400115343, 0.9608105099087058)

(50, 0.5, 1.0, True)
(0.8597722398589704, 0.9511707756388603)

(50, 0.75, 0.25, False)
(0.796659392029857, 0.9321312657771362)

(50, 0.75, 0.25, True)
(0.7977349300647284, 0.9214016392249342)

(50, 0.75, 0.5, False)
(0.8674184840350633, 0.9556450477343766)

(50, 0.75, 0.5, True)
(0.8307678236475932, 0.9360564065159245)

(50, 0.75, 0.75, False)
(0.8800399945383366, 0.9596267218015696)

(50, 0.75, 0.75, True)
(0.8640076895387443, 0.9537387583916227)

(50, 0.75, 1.0, False)
(0.8809297896074445, 0.9637074414993896)

(50, 0.75, 1.0, True)
(0.8719886798632845, 0.9555191302764112)

(50, 1.0, 0.25, False)
(0.8205207990965505, 0.9336156971216175)

(50, 1.0, 0.25, True)
(0.7854832208574697, 0.9219038749763538)

(50, 1.0, 0.5, False)
(0.8753885567313558, 0.9591247019217275)

(50, 1.0, 0.5, True)
(0.8435089378271776, 0.9399252986627885)

(50, 1.0, 0.75, False)
(0.8820013511796212, 0.9607509009134838)

(50, 1.0, 0.75, True)
(0.8686806682672806, 0.9546821849259222)

(50, 1.0, 1.0, False)
(0.8833114690110495, 0.9642307745610261)

(50, 1.0, 1.0, True)
(0.8727216845332235, 0.9564034607995732)

(75, 0.25, 0.25, False)
(0.7808042093641359, 0.9289133799048317)

(75, 0.25, 0.25, True)
(0.7421870111960305, 0.9061248614702617)

(75, 0.25, 0.5, False)
(0.833957891059037, 0.9463037672595027)

(75, 0.25, 0.5, True)
(0.7940590932786428, 0.9349825653976948)

(75, 0.25, 0.75, False)
(0.8522702837311893, 0.9532321528948842)

(75, 0.25, 0.75, True)
(0.827607440129089, 0.9416871859832898)

(75, 0.25, 1.0, False)
(0.8626100406100105, 0.9606935934308694)

(75, 0.25, 1.0, True)
(0.838496284136961, 0.9489854990610389)

(75, 0.5, 0.25, False)
(0.8137861590460249, 0.9359451574424046)

(75, 0.5, 0.25, True)
(0.7544495940451355, 0.9156058186719008)

(75, 0.5, 0.5, False)
(0.854945132353973, 0.9525490251443571)

(75, 0.5, 0.5, True)
(0.8291975884843364, 0.9379414876883914)

(75, 0.5, 0.75, False)
(0.8721940203475648, 0.9601564136582634)

(75, 0.5, 0.75, True)
(0.8477469237147834, 0.9478832426319875)

(75, 0.5, 1.0, False)
(0.8804476698871758, 0.9630462234433753)

(75, 0.5, 1.0, True)
(0.8609043978121355, 0.9497625523159952)

(75, 0.75, 0.25, False)
(0.8036999817500649, 0.938089639549221)

(75, 0.75, 0.25, True)
(0.7767287837852632, 0.9170140869794176)

(75, 0.75, 0.5, False)
(0.8673774145051312, 0.9553352671153786)

(75, 0.75, 0.5, True)
(0.8329911614588923, 0.9376920767878324)

(75, 0.75, 0.75, False)
(0.881110803231447, 0.9605485497227919)

(75, 0.75, 0.75, True)
(0.8618914924081446, 0.951510535668951)

(75, 0.75, 1.0, False)
(0.8826038966731775, 0.9646938238430954)

(75, 0.75, 1.0, True)
(0.8723268314728627, 0.9545180427190997)

(75, 1.0, 0.25, False)
(0.8283800542038665, 0.9400532478314386)

(75, 1.0, 0.25, True)
(0.780129921145362, 0.9177433498976901)

(75, 1.0, 0.5, False)
(0.8744782120128035, 0.9569836563189472)

(75, 1.0, 0.5, True)
(0.8452170990821625, 0.9410188049785427)

(75, 1.0, 0.75, False)
(0.8831437928549634, 0.9618486785186007)

(75, 1.0, 0.75, True)
(0.8657802995472711, 0.9523473946808355)

(75, 1.0, 1.0, False)
(0.8820600668912898, 0.9650731220917345)

(75, 1.0, 1.0, True)
(0.8680622046224394, 0.9534942606347058)

(100, 0.25, 0.25, False)
(0.7599201128571663, 0.928311936431662)

(100, 0.25, 0.25, True)
(0.7442373829693342, 0.9080634452231643)

(100, 0.25, 0.5, False)
(0.8314987616343323, 0.9464848743076262)

(100, 0.25, 0.5, True)
(0.795103167729975, 0.936451783847266)

(100, 0.25, 0.75, False)
(0.8563012671281311, 0.9556010545801308)

(100, 0.25, 0.75, True)
(0.8291845541134482, 0.9440774988991627)

(100, 0.25, 1.0, False)
(0.862632674077763, 0.9605162510604559)

(100, 0.25, 1.0, True)
(0.8406603710564866, 0.9481655199694835)

(100, 0.5, 0.25, False)
(0.8145024424470091, 0.9365350644128159)

(100, 0.5, 0.25, True)
(0.7547546277581689, 0.9169739537606083)

(100, 0.5, 0.5, False)
(0.8519173657250138, 0.9532947650627905)

(100, 0.5, 0.5, True)
(0.8300726472212416, 0.9405573461878541)

(100, 0.5, 0.75, False)
(0.8743057550030562, 0.9607585744609536)

(100, 0.5, 0.75, True)
(0.8522852517627133, 0.9520724476430568)

(100, 0.5, 1.0, False)
(0.8796389374859331, 0.9639256043605492)

(100, 0.5, 1.0, True)
(0.8621797903458496, 0.9529982425307553)

(100, 0.75, 0.25, False)
(0.8224631619876901, 0.9384952771367546)

(100, 0.75, 0.25, True)
(0.7572046477832742, 0.9184064047685132)

(100, 0.75, 0.5, False)
(0.8669989885138897, 0.9553167819070278)

(100, 0.75, 0.5, True)
(0.8310687503166996, 0.9395306343858842)

(100, 0.75, 0.75, False)
(0.8814337135809036, 0.9605758767891515)

(100, 0.75, 0.75, True)
(0.8644770886851062, 0.9534349962686036)

(100, 0.75, 1.0, False)
(0.8844437190205391, 0.9658103095066713)

(100, 0.75, 1.0, True)
(0.8727481636098327, 0.955430622344974)

(100, 1.0, 0.25, False)
(0.8278552272600722, 0.9408248484155126)

(100, 1.0, 0.25, True)
(0.7806685181767156, 0.9191453340727979)

(100, 1.0, 0.5, False)
(0.868794177590051, 0.9556897012678172)

(100, 1.0, 0.5, True)
(0.8416147987223866, 0.9428591759766592)

(100, 1.0, 0.75, False)
(0.8857401981939772, 0.9637100706295356)

(100, 1.0, 0.75, True)
(0.8681039400901587, 0.9539830234096759)

(100, 1.0, 1.0, False)
(0.8840533414743024, 0.9649249182689639)

(100, 1.0, 1.0, True)
(0.8727245415467507, 0.9547613026496946)

(150, 0.25, 0.25, False)
(0.75966988781947, 0.9265888832524092)

(150, 0.25, 0.25, True)
(0.7445057992464159, 0.9084793768808634)

(150, 0.25, 0.5, False)
(0.8300748741856322, 0.9464731940027256)

(150, 0.25, 0.5, True)
(0.7942427934529567, 0.9377684861675921)

(150, 0.25, 0.75, False)
(0.8549223831742182, 0.9549058960575988)

(150, 0.25, 0.75, True)
(0.8320237091888749, 0.9454963522298231)

(150, 0.25, 1.0, False)
(0.8608437775699623, 0.959905397885364)

(150, 0.25, 1.0, True)
(0.8407215129611711, 0.9495565723323725)

(150, 0.5, 0.25, False)
(0.7929804558720651, 0.934446043165467)

(150, 0.5, 0.25, True)
(0.7546716160454547, 0.9172360316601067)

(150, 0.5, 0.5, False)
(0.8500906227498541, 0.9532422822958401)

(150, 0.5, 0.5, True)
(0.8308435558330062, 0.9421706663626512)

(150, 0.5, 0.75, False)
(0.8742097593887969, 0.958383476532982)

(150, 0.5, 0.75, True)
(0.8488196931657578, 0.9503792533581926)

(150, 0.5, 1.0, False)
(0.8799310638986907, 0.9655277523762013)

(150, 0.5, 1.0, True)
(0.863498341136985, 0.9541286983912696)

(150, 0.75, 0.25, False)
(0.8187397096821154, 0.9358847275495978)

(150, 0.75, 0.25, True)
(0.7785522787288264, 0.9191454564039655)

(150, 0.75, 0.5, False)
(0.8626136370540504, 0.9539888107552029)

(150, 0.75, 0.5, True)
(0.8346633107018026, 0.9413107038436849)

(150, 0.75, 0.75, False)
(0.88170249653375, 0.9608675021631725)

(150, 0.75, 0.75, True)
(0.8646927368930148, 0.9546331095252165)

(150, 0.75, 1.0, False)
(0.884529895798722, 0.965793042371239)

(150, 0.75, 1.0, True)
(0.8767153199314766, 0.9569119028589852)

(150, 1.0, 0.25, False)
(0.8225947021896675, 0.937563648359844)

(150, 1.0, 0.25, True)
(0.7984924555882474, 0.9193899146172366)

(150, 1.0, 0.5, False)
(0.8668291000833547, 0.9556299589218384)

(150, 1.0, 0.5, True)
(0.8424921829143621, 0.9435127978817294)

(150, 1.0, 0.75, False)
(0.8873204432749768, 0.9636437055293309)

(150, 1.0, 0.75, True)
(0.8674380967671489, 0.9533418823894136)

(150, 1.0, 1.0, False)
(0.8829289544120489, 0.9635816257162275)

(150, 1.0, 1.0, True)
(0.8750304014392357, 0.9565644654088046)

(175, 0.25, 0.25, False)
(0.759937876063204, 0.9250199608042383)

(175, 0.25, 0.25, True)
(0.7444999981322232, 0.9087477699305541)

(175, 0.25, 0.5, False)
(0.8266487124805947, 0.9453801219460191)

(175, 0.25, 0.5, True)
(0.7949267241759634, 0.9380021482277117)

(175, 0.25, 0.75, False)
(0.8533776985313855, 0.954434431062073)

(175, 0.25, 0.75, True)
(0.8322212297008729, 0.9465005392518584)

(175, 0.25, 1.0, False)
(0.8614929564376136, 0.9608153957394733)

(175, 0.25, 1.0, True)
(0.8427016667332923, 0.9498382562755147)

(175, 0.5, 0.25, False)
(0.7917452042228206, 0.9329357018340028)

(175, 0.5, 0.25, True)
(0.7545837160093731, 0.9175393435909431)

(175, 0.5, 0.5, False)
(0.8485950166655096, 0.951897947363216)

(175, 0.5, 0.5, True)
(0.8322413412437203, 0.9431468611142754)

(175, 0.5, 0.75, False)
(0.8734775081878697, 0.9579133064516124)

(175, 0.5, 0.75, True)
(0.8525890150929271, 0.9506626352821492)

(175, 0.5, 1.0, False)
(0.8800064776169922, 0.9655936924078866)

(175, 0.5, 1.0, True)
(0.864765695394021, 0.9539954980303876)

(175, 0.75, 0.25, False)
(0.8172957973431104, 0.9348688750862658)

(175, 0.75, 0.25, True)
(0.7584310617561757, 0.9192220080602764)

(175, 0.75, 0.5, False)
(0.8636266970988474, 0.953812316715542)

(175, 0.75, 0.5, True)
(0.8371594180267345, 0.9427085559592501)

(175, 0.75, 0.75, False)
(0.8814454271820228, 0.9601697636432166)

(175, 0.75, 0.75, True)
(0.8662236671255387, 0.9547118796823065)

(175, 0.75, 1.0, False)
(0.8845462026804616, 0.9660871491058075)

(175, 0.75, 1.0, True)
(0.8765738861503566, 0.9577820139044624)

(175, 1.0, 0.25, False)
(0.821618506263207, 0.9359690835691806)

(175, 1.0, 0.25, True)
(0.7986606472108795, 0.9196713895901119)

(175, 1.0, 0.5, False)
(0.8660840782919168, 0.9554964613847728)

(175, 1.0, 0.5, True)
(0.8445512495197564, 0.9447194719471942)

(175, 1.0, 0.75, False)
(0.8872486633960407, 0.9644258872651352)

(175, 1.0, 0.75, True)
(0.8689774583103023, 0.9544795347985857)

(175, 1.0, 1.0, False)
(0.8844997816081303, 0.9642158969595293)

(175, 1.0, 1.0, True)
(0.8769083250706262, 0.9567011466827601)

(150, 1.0, 0.75, False)
0.8873204432749768
0.9636437055293309
